Run__000 = 0 0 376 520
Run__001 = 377 0 376 520
Run__002 = 754 0 376 520
Run__003 = 1131 0 376 520
Run__004 = 1508 0 376 520
Run__005 = 0 521 376 520
Run__006 = 377 521 376 520
Run__007 = 754 521 376 520
Run__008 = 1131 521 376 520
Run__009 = 1508 521 376 520
