Run__000 = 0 0 363 458
Run__001 = 364 0 363 458
Run__002 = 0 459 363 458
Run__003 = 364 459 363 458
Run__004 = 728 0 363 458
Run__005 = 1092 0 363 458
Run__006 = 728 459 363 458
Run__007 = 1456 0 363 458
Run__008 = 1092 459 363 458
Run__009 = 1456 459 363 458
