%YAML 1.1
%TAG !u! tag:unity3d.com,2011:
--- !u!74 &7400000
AnimationClip:
  m_ObjectHideFlags: 0
  m_PrefabParentObject: {fileID: 0}
  m_PrefabInternal: {fileID: 0}
  m_Name: FallenLeaf
  serializedVersion: 6
  m_Legacy: 0
  m_Compressed: 0
  m_UseHighQualityCurve: 1
  m_RotationCurves: []
  m_CompressedRotationCurves: []
  m_EulerCurves:
  - curve:
      serializedVersion: 2
      m_Curve:
      - time: 0
        value: {x: 0, y: 0, z: 0}
        inSlope: {x: 0, y: 0, z: 7.839}
        outSlope: {x: 0, y: 0, z: 7.839}
        tangentMode: 0
      - time: 2
        value: {x: 0, y: 0, z: 15.678}
        inSlope: {x: 0, y: 0, z: -6.932}
        outSlope: {x: 0, y: 0, z: -6.932}
        tangentMode: 0
      - time: 4
        value: {x: 0, y: 0, z: -27.728}
        inSlope: {x: 0, y: 0, z: 0.06454182}
        outSlope: {x: 0, y: 0, z: 0.06454182}
        tangentMode: 0
      - time: 6.4
        value: {x: 0, y: 0, z: 24.669}
        inSlope: {x: 0, y: 0, z: 8.859119}
        outSlope: {x: 0, y: 0, z: 8.859119}
        tangentMode: 0
      - time: 9
        value: {x: 0, y: 0, z: 13.973001}
        inSlope: {x: 0, y: 0, z: -4.3857565}
        outSlope: {x: 0, y: 0, z: -4.3857565}
        tangentMode: 0
      - time: 12
        value: {x: 0, y: 0, z: 0}
        inSlope: {x: 0, y: 0, z: -4.6576667}
        outSlope: {x: 0, y: 0, z: -4.6576667}
        tangentMode: 0
      m_PreInfinity: 2
      m_PostInfinity: 2
      m_RotationOrder: 4
    path: 
  m_PositionCurves: []
  m_ScaleCurves: []
  m_FloatCurves:
  - curve:
      serializedVersion: 2
      m_Curve:
      - time: 0
        value: 0
        inSlope: -89.75
        outSlope: -89.75
        tangentMode: 10
      - time: 2
        value: -179.5
        inSlope: 62
        outSlope: 62
        tangentMode: 10
      - time: 4
        value: 248
        inSlope: -1.0416641
        outSlope: -1.0416641
        tangentMode: 10
      - time: 6.4
        value: -270
        inSlope: 3.6218033
        outSlope: 3.6218033
        tangentMode: 10
      - time: 9
        value: 310
        inSlope: 59.8718
        outSlope: 59.8718
        tangentMode: 10
      - time: 12
        value: 0
        inSlope: -103.333336
        outSlope: -103.333336
        tangentMode: 10
      m_PreInfinity: 2
      m_PostInfinity: 2
      m_RotationOrder: 4
    attribute: m_AnchoredPosition.x
    path: 
    classID: 224
    script: {fileID: 0}
  - curve:
      serializedVersion: 2
      m_Curve:
      - time: 0
        value: 767
        inSlope: -98.375
        outSlope: -98.375
        tangentMode: 10
      - time: 4
        value: 373.5
        inSlope: -98.666664
        outSlope: -98.666664
        tangentMode: 10
      - time: 6.4
        value: 136
        inSlope: -99.863785
        outSlope: -99.863785
        tangentMode: 10
      - time: 9
        value: -126
        inSlope: -100.88461
        outSlope: -100.88461
        tangentMode: 10
      - time: 12
        value: -429
        inSlope: -101
        outSlope: -101
        tangentMode: 10
      m_PreInfinity: 2
      m_PostInfinity: 2
      m_RotationOrder: 4
    attribute: m_AnchoredPosition.y
    path: 
    classID: 224
    script: {fileID: 0}
  - curve:
      serializedVersion: 2
      m_Curve:
      - time: 0
        value: 0
        inSlope: 0
        outSlope: 0
        tangentMode: 10
      - time: 2
        value: 0
        inSlope: 0
        outSlope: 0
        tangentMode: 10
      - time: 4
        value: 0
        inSlope: 0
        outSlope: 0
        tangentMode: 10
      - time: 6.4
        value: 0
        inSlope: 0
        outSlope: 0
        tangentMode: 10
      - time: 9
        value: 0
        inSlope: 0
        outSlope: 0
        tangentMode: 10
      - time: 12
        value: 0
        inSlope: 0
        outSlope: 0
        tangentMode: 10
      m_PreInfinity: 2
      m_PostInfinity: 2
      m_RotationOrder: 4
    attribute: m_LocalPosition.z
    path: 
    classID: 224
    script: {fileID: 0}
  m_PPtrCurves: []
  m_SampleRate: 5
  m_WrapMode: 0
  m_Bounds:
    m_Center: {x: 0, y: 0, z: 0}
    m_Extent: {x: 0, y: 0, z: 0}
  m_ClipBindingConstant:
    genericBindings:
    - path: 0
      attribute: 4
      script: {fileID: 0}
      classID: 4
      customType: 14
      isPPtrCurve: 0
    - path: 0
      attribute: 1460864421
      script: {fileID: 0}
      classID: 224
      customType: 0
      isPPtrCurve: 0
    - path: 0
      attribute: 538195251
      script: {fileID: 0}
      classID: 224
      customType: 0
      isPPtrCurve: 0
    - path: 0
      attribute: 2033536083
      script: {fileID: 0}
      classID: 224
      customType: 28
      isPPtrCurve: 0
    pptrCurveMapping: []
  m_AnimationClipSettings:
    serializedVersion: 2
    m_AdditiveReferencePoseClip: {fileID: 0}
    m_AdditiveReferencePoseTime: 0
    m_StartTime: 0
    m_StopTime: 12
    m_OrientationOffsetY: 0
    m_Level: 0
    m_CycleOffset: 0
    m_HasAdditiveReferencePose: 0
    m_LoopTime: 0
    m_LoopBlend: 0
    m_LoopBlendOrientation: 0
    m_LoopBlendPositionY: 0
    m_LoopBlendPositionXZ: 0
    m_KeepOriginalOrientation: 0
    m_KeepOriginalPositionY: 1
    m_KeepOriginalPositionXZ: 0
    m_HeightFromFeet: 0
    m_Mirror: 0
  m_EditorCurves:
  - curve:
      serializedVersion: 2
      m_Curve:
      - time: 0
        value: 0
        inSlope: -89.75
        outSlope: -89.75
        tangentMode: 10
      - time: 2
        value: -179.5
        inSlope: 62
        outSlope: 62
        tangentMode: 10
      - time: 4
        value: 248
        inSlope: -1.0416641
        outSlope: -1.0416641
        tangentMode: 10
      - time: 6.4
        value: -270
        inSlope: 3.6218033
        outSlope: 3.6218033
        tangentMode: 10
      - time: 9
        value: 310
        inSlope: 59.8718
        outSlope: 59.8718
        tangentMode: 10
      - time: 12
        value: 0
        inSlope: -103.333336
        outSlope: -103.333336
        tangentMode: 10
      m_PreInfinity: 2
      m_PostInfinity: 2
      m_RotationOrder: 4
    attribute: m_AnchoredPosition.x
    path: 
    classID: 224
    script: {fileID: 0}
  - curve:
      serializedVersion: 2
      m_Curve:
      - time: 0
        value: 767
        inSlope: -98.375
        outSlope: -98.375
        tangentMode: 10
      - time: 4
        value: 373.5
        inSlope: -98.666664
        outSlope: -98.666664
        tangentMode: 10
      - time: 6.4
        value: 136
        inSlope: -99.863785
        outSlope: -99.863785
        tangentMode: 10
      - time: 9
        value: -126
        inSlope: -100.88461
        outSlope: -100.88461
        tangentMode: 10
      - time: 12
        value: -429
        inSlope: -101
        outSlope: -101
        tangentMode: 10
      m_PreInfinity: 2
      m_PostInfinity: 2
      m_RotationOrder: 4
    attribute: m_AnchoredPosition.y
    path: 
    classID: 224
    script: {fileID: 0}
  - curve:
      serializedVersion: 2
      m_Curve:
      - time: 0
        value: 0
        inSlope: 0
        outSlope: 0
        tangentMode: 10
      - time: 2
        value: 0
        inSlope: 0
        outSlope: 0
        tangentMode: 10
      - time: 4
        value: 0
        inSlope: 0
        outSlope: 0
        tangentMode: 10
      - time: 6.4
        value: 0
        inSlope: 0
        outSlope: 0
        tangentMode: 10
      - time: 9
        value: 0
        inSlope: 0
        outSlope: 0
        tangentMode: 10
      - time: 12
        value: 0
        inSlope: 0
        outSlope: 0
        tangentMode: 10
      m_PreInfinity: 2
      m_PostInfinity: 2
      m_RotationOrder: 4
    attribute: localEulerAnglesRaw.x
    path: 
    classID: 224
    script: {fileID: 0}
  - curve:
      serializedVersion: 2
      m_Curve:
      - time: 0
        value: 0
        inSlope: 0
        outSlope: 0
        tangentMode: 10
      - time: 2
        value: 0
        inSlope: 0
        outSlope: 0
        tangentMode: 10
      - time: 4
        value: 0
        inSlope: 0
        outSlope: 0
        tangentMode: 10
      - time: 6.4
        value: 0
        inSlope: 0
        outSlope: 0
        tangentMode: 10
      - time: 9
        value: 0
        inSlope: 0
        outSlope: 0
        tangentMode: 10
      - time: 12
        value: 0
        inSlope: 0
        outSlope: 0
        tangentMode: 10
      m_PreInfinity: 2
      m_PostInfinity: 2
      m_RotationOrder: 4
    attribute: localEulerAnglesRaw.y
    path: 
    classID: 224
    script: {fileID: 0}
  - curve:
      serializedVersion: 2
      m_Curve:
      - time: 0
        value: 0
        inSlope: 7.839
        outSlope: 7.839
        tangentMode: 10
      - time: 2
        value: 15.678
        inSlope: -6.932
        outSlope: -6.932
        tangentMode: 10
      - time: 4
        value: -27.728
        inSlope: 0.06454182
        outSlope: 0.06454182
        tangentMode: 10
      - time: 6.4
        value: 24.669
        inSlope: 8.859119
        outSlope: 8.859119
        tangentMode: 10
      - time: 9
        value: 13.973001
        inSlope: -4.3857565
        outSlope: -4.3857565
        tangentMode: 10
      - time: 12
        value: 0
        inSlope: -4.6576667
        outSlope: -4.6576667
        tangentMode: 10
      m_PreInfinity: 2
      m_PostInfinity: 2
      m_RotationOrder: 4
    attribute: localEulerAnglesRaw.z
    path: 
    classID: 224
    script: {fileID: 0}
  - curve:
      serializedVersion: 2
      m_Curve:
      - time: 0
        value: 0
        inSlope: 0
        outSlope: 0
        tangentMode: 10
      - time: 2
        value: 0
        inSlope: 0
        outSlope: 0
        tangentMode: 10
      - time: 4
        value: 0
        inSlope: 0
        outSlope: 0
        tangentMode: 10
      - time: 6.4
        value: 0
        inSlope: 0
        outSlope: 0
        tangentMode: 10
      - time: 9
        value: 0
        inSlope: 0
        outSlope: 0
        tangentMode: 10
      - time: 12
        value: 0
        inSlope: 0
        outSlope: 0
        tangentMode: 10
      m_PreInfinity: 2
      m_PostInfinity: 2
      m_RotationOrder: 4
    attribute: m_LocalPosition.z
    path: 
    classID: 224
    script: {fileID: 0}
  m_EulerEditorCurves:
  - curve:
      serializedVersion: 2
      m_Curve: []
      m_PreInfinity: 2
      m_PostInfinity: 2
      m_RotationOrder: 4
    attribute: m_LocalEulerAngles.x
    path: 
    classID: 224
    script: {fileID: 0}
  - curve:
      serializedVersion: 2
      m_Curve: []
      m_PreInfinity: 2
      m_PostInfinity: 2
      m_RotationOrder: 4
    attribute: m_LocalEulerAngles.y
    path: 
    classID: 224
    script: {fileID: 0}
  - curve:
      serializedVersion: 2
      m_Curve: []
      m_PreInfinity: 2
      m_PostInfinity: 2
      m_RotationOrder: 4
    attribute: m_LocalEulerAngles.z
    path: 
    classID: 224
    script: {fileID: 0}
  m_HasGenericRootTransform: 1
  m_HasMotionFloatCurves: 0
  m_GenerateMotionCurves: 0
  m_Events: []
